CCAFE Extra Details • CCAFE
…
Examples in simulated data

nrow(simDat[simDat$is_minor_case != simDat$is_minor_control, ])
#> [1] 32

There are 32 variants for which the minor allele is a different
allele in cases and controls.

diff_alleles <- simDat[simDat$is_minor_case != simDat$is_minor_control, ]
diff_alleles
#> # A tibble: 32 × 13
#> # Rowwise: 
#>    chr     pos case_sim_af control_sim_af total_sim_af    OR     SE
#>    <chr> <int>       <dbl>          <dbl>        <dbl> <dbl>  <dbl>
#>  1 1        95       0.507          0.490        0.498  1.07 0.0200
#>  2 2        28       0.504          0.493        0.499  1.05 0.0200
#>  3 4        47       0.520          0.491        0.505  1.12 0.0200
#>  4 6         7       0.504          0.495        0.500  1.04 0.0200
#>  5 6        81       0.501          0.496        0.498  1.02 0.0200
#>  6 7        57       0.504          0.498        0.501  1.02 0.0200
#>  7 7        88       0.519          0.495        0.507  1.10 0.0200
#>  8 8        14       0.503          0.485        0.494  1.07 0.0200
#>  9 8        23       0.522          0.499        0.511  1.10 0.0200
#> 10 8        98       0.501          0.481        0.491  1.08 0.0200
#> # ℹ 22 more rows
#> # ℹ 6 more variables: is_minor_case <dbl>, is_minor_control <dbl>,
#> #   is_minor_total <dbl>, case_sim_maf <dbl>, control_sim_maf <dbl>,
#> #   total_sim_maf <dbl>
…
